<?xml version="1.0" encoding="UTF-8" standalone="no"?>
<!DOCTYPE svg PUBLIC "-//W3C//DTD SVG 1.1//EN" "http://www.w3.org/Graphics/SVG/1.1/DTD/svg11.dtd">
<svg width="100%" height="100%" viewBox="0 0 20 20" version="1.1" xmlns="http://www.w3.org/2000/svg" xmlns:xlink="http://www.w3.org/1999/xlink" xml:space="preserve" xmlns:serif="http://www.serif.com/" style="fill-rule:evenodd;clip-rule:evenodd;stroke-linejoin:round;stroke-miterlimit:2;">
    <g transform="matrix(1,0,0,1,-2.25,-2.25)">
        <path d="M11.25,7.5L12.75,7.5L12.75,9L11.25,9L11.25,7.5ZM11.25,11L12.75,11L12.75,17L11.25,17L11.25,11ZM12,2.25C6.48,2.25 2.25,6.48 2.25,12C2.25,17.52 6.48,21.75 12,21.75C17.52,21.75 21.75,17.52 21.75,12C21.75,6.48 17.52,2.25 12,2.25ZM12,20.25C7.59,20.25 3.75,16.41 3.75,12C3.75,7.59 7.59,3.75 12,3.75C16.41,3.75 20.25,7.59 20.25,12C20.25,16.41 16.41,20.25 12,20.25Z" style="fill:rgb(177,177,177);fill-rule:nonzero;"/>
    </g>
</svg>
